{
	"name": "test",
	"sourceFiles": ["test.d"],
	"importPaths": ["."],
	"configurations": [
		{
			"name": "executable",
			"targetType": "executable"
		},
		{
			"name": "unittest",
			"dependencies": {
				"silly": {"path": "../../../"}
			}
		}
	]
}